{
    "dependencies": {
        "Microsoft.AspNetCore.Mvc": "1.0.1",
        "Microsoft.AspNetCore.Routing": "1.0.1",
        "Microsoft.AspNetCore.Server.IISIntegration": "1.0.0",
        "Microsoft.AspNetCore.Server.Kestrel": "1.0.1",
        "Microsoft.Extensions.Configuration.EnvironmentVariables": "1.0.0",
        "Microsoft.Extensions.Configuration.FileExtensions": "1.0.0",
        "Microsoft.Extensions.Configuration.Json": "1.0.0",
        "Microsoft.Extensions.Configuration.CommandLine": "1.0.0",
        "Microsoft.Extensions.Logging": "1.0.0",
        "Microsoft.Extensions.Logging.Console": "1.0.0",
        "Microsoft.Extensions.Logging.Debug": "1.0.0",
        "Microsoft.Extensions.Options.ConfigurationExtensions": "1.0.0",
        "System.Net.Http": "4.1.0",
        "Microsoft.TeamFoundationServer.ExtendedClient": "15.98.20160425.2-release"
    },
    "tools": {
        "Microsoft.AspNetCore.Server.IISIntegration.Tools": "1.0.0-preview2-final",
        "Microsoft.DotNet.Watcher.Tools": "1.0.0-preview2-final"
    },
    "frameworks": {
        "net452": {}
    },
    "buildOptions": {
        "emitEntryPoint": true,
        "preserveCompilationContext": true
    },
    "runtimeOptions": {
        "configProperties": {
            "System.GC.Server": true
        }
    },
    "publishOptions": {
        "include": [
            "wwwroot",
            "Views",
            "Areas/**/Views",
            "appsettings.json",
            "web.config"
        ]
    },
    "scripts": {
        "postpublish": [
            "dotnet publish-iis --publish-folder %publish:OutputPath% --framework %publish:FullTargetFramework%"
        ]
    },
    "tooling": {
        "defaultNamespace": "Api"
    }
}